COMPSCIX 415.2 Homework 5/Midterm
…
5. What proportion of sales is missing for each city?

n_per_city <- df2 %>% group_by(city) %>% count()
y <- as.numeric(n_per_city$n)

missing_sales <- df2 %>%
  group_by(city)%>%
  summarize (count  = n(), Num_missing = sum(is.na(sales))) %>%
  mutate (proportion = (Num_missing/y))

missing_sales

## # A tibble: 46 x 4
##    city                  count Num_missing proportion
##    <chr>                 <int>       <int>      <dbl>
##  1 Abilene                 187           0     0     
##  2 Amarillo                187           0     0     
##  3 Arlington               187           0     0     
##  4 Austin                  187           0     0     
##  5 Bay Area                187           0     0     
##  6 Beaumont                187           0     0     
##  7 Brazoria County         187          14     0.0749
##  8 Brownsville             187           2     0.0107
##  9 Bryan-College Station   187           0     0     
## 10 Collin County           187           0     0     
## #  with 36 more rows
…
